%YAML 1.1
%TAG !u! tag:unity3d.com,2011:
--- !u!1045 &1
EditorBuildSettings:
  m_ObjectHideFlags: 0
  serializedVersion: 2
  m_Scenes:
  - enabled: 1
    path: Assets/Scenes/FlappyClone.unity
    guid: 59a96327059d83c49bd4bf0ce5907ce1
  m_configObjects: {}
